[api-updater (non-obsolete-error-filter)] 21/02/2022 9:01:37 PM : Starting C:/Program Files/Unity/Hub/Editor/2020.3.21f1/Editor/Data/Tools/ScriptUpdater/APIUpdater.NonObsoleteApiUpdaterDetector.exe
[api-updater (non-obsolete-error-filter)] 
----------------------------------
jit/startup time      : 1121.0503ms
moved types parse time: 83ms
candidates parse time : 1ms
C# parse time         : 411ms
candidates check time : 45ms
console write time    : 1ms

[api-updater (non-obsolete-error-filter)] 26/02/2022 7:29:33 PM : Starting C:/Program Files/Unity/Hub/Editor/2020.3.21f1/Editor/Data/Tools/ScriptUpdater/APIUpdater.NonObsoleteApiUpdaterDetector.exe
[api-updater (non-obsolete-error-filter)] 
----------------------------------
jit/startup time      : 1308.9058ms
moved types parse time: 82ms
candidates parse time : 1ms
C# parse time         : 364ms
candidates check time : 68ms
console write time    : 1ms

[api-updater (non-obsolete-error-filter)] 26/02/2022 9:00:06 PM : Starting C:/Program Files/Unity/Hub/Editor/2020.3.21f1/Editor/Data/Tools/ScriptUpdater/APIUpdater.NonObsoleteApiUpdaterDetector.exe
[api-updater (non-obsolete-error-filter)] 
----------------------------------
jit/startup time      : 103.7198ms
moved types parse time: 84ms
candidates parse time : 1ms
C# parse time         : 285ms
candidates check time : 42ms
console write time    : 0ms

[api-updater (non-obsolete-error-filter)] 27/02/2022 12:15:25 AM : Starting C:/Program Files/Unity/Hub/Editor/2020.3.21f1/Editor/Data/Tools/ScriptUpdater/APIUpdater.NonObsoleteApiUpdaterDetector.exe
[api-updater (non-obsolete-error-filter)] 
----------------------------------
jit/startup time      : 100.4031ms
moved types parse time: 86ms
candidates parse time : 3ms
C# parse time         : 367ms
candidates check time : 37ms
console write time    : 0ms

